703523 530564
343054 330065
39561 282443
198703 703877
208323 361817
811430 660260
812398 577574
34229 18764
340152 228706
891089 354184
197239 900350
323192 657313
595227 999545
768953 520679
968285 119139
145191 100498
943063 74595
953698 416858
569012 442124
106288 830379
88264 960547
944884 574827
177423 954082
455928 208823
914342 155657
716431 713127
537475 641846
708103 13115
363725 573501
169680 919142
443158 292128
305024 545301
11427 946111
801298 512408
272520 247726
839624 259219
881268 172380
472748 697747
849420 681660
327598 197794
289410 443270
25169 146264
209227 544104
58479 649290
737353 894346
953417 989365
85388 778151
799842 783635
434709 32531
763858 81573
430376 613497
70900 147621
315955 929198
796454 329541
119539 186363
366003 738903
364229 968094
635928 901830
762641 698934
477084 628497
19511 1950
871492 120826
846082 263850
866935 566163
792897 504273
266835 2315
618856 633467
906472 364959
2334 57394
984944 282942
998423 776850
318816 928
537561 977668
552362 982536
649120 153477
716427 727458
679182 214094
13474 761825
544101 857451
976256 836387
543980 721145
230452 921638
700992 916632
876179 734621
812127 131387
853660 763566
400856 125758
801705 490159
643168 842084
987381 478805
158854 443446
685952 114709
181314 532967
239961 675774
188276 109422
747827 295177
566385 166570
970249 374513
921908 404341
763561 568868
487098 743469
69431 683136
83502 308385
841969 615796
753729 815556
584435 197876
721762 491579
171891 710321
574074 39524
590938 832305
477164 283418
574346 474561
261562 399254
219294 114671
246720 533202
789557 279052
888010 964333
616817 591942
733404 984278
986102 495646
156442 926721
624171 113692
651217 27366
550483 821578
400998 970678
792041 205697
124309 503160
387268 638581
788656 103082
779057 974567
376837 606192
955120 297411
462251 999360
585018 54680
513584 494966
832054 504075
51475 119766
329342 7190
543117 732774
245458 937872
719044 85947
772677 400312
365376 826750
393428 46227
491694 641469
603815 488040
778597 628352
174773 846833
428864 83729
663573 347568
915532 342914
113980 540123
977352 345020
486024 245148
589451 949123
486512 730026
509809 887516
414816 854035
962641 961949
863650 4122
918843 837475
536181 292247
462029 966775
484175 103307
524311 173864
134681 636829
847419 645769
769912 411082
657010 118733
967885 616323
364857 844754
736641 718168
596256 662316
338450 473427
134774 698420
320585 182038
742852 247215
505818 682692
491562 406
77160 569017
914914 184664
684593 665354
441450 300993
528327 531276
551257 158317
624941 899075
725920 138560
86903 68060
534209 963116
370738 850327
367313 799596
113910 146213
17432 346060
12909 325783
362080 748428
932883 533232
141473 104259
944594 294542
689418 328218
937665 888101
218149 849333
278092 547936
63793 452053
492978 357234
694767 924411
172068 820534
774005 42858
211570 204754
652516 178063
474597 15138
860868 91799
129926 769644
345221 103330
133296 413825
840523 818867
403907 634687
154540 354269
113663 522488
