231518 176430
693343 443184
582514 213493
656306 965881
666042 512397
777714 687271
102213 144368
636418 490435
277782 728256
250361 192604
275346 731427
49338 757930
247977 386508
470503 407879
829074 645573
778521 459082
18979 782260
203539 716852
269357 719908
5640 534179
810638 60046
157840 431293
764513 293366
952224 678761
752817 330051
666310 625459
438375 525649
700372 603507
307617 888447
675289 752302
725310 650774
94901 303927
850210 777990
338480 688000
140578 207747
940248 494204
121326 761693
475289 207631
114534 700712
222685 890230
268894 535676
49305 95898
873412 447926
320033 538184
57864 454965
868947 455275
595501 328459
727828 133025
408170 343473
441431 961834
407809 90850
234684 62224
883709 291943
46095 489635
974042 525144
536691 91132
925141 846381
549598 185066
122414 598779
413255 277878
541360 877861
196660 970631
249952 587147
178909 411161
824062 943220
909804 208283
629716 812590
815787 920269
591812 319117
707772 712982
76031 962401
274273 550597
424010 582916
702168 73167
50937 522254
375525 989905
388771 576070
708938 924848
1385 980291
260454 611028
310050 669045
654708 51766
226534 398438
381390 538213
195472 781848
924711 167974
904136 715092
173155 734936
89395 311989
196037 346385
34534 719938
853281 440244
461176 836134
26447 850527
290928 602853
316389 65568
294329 789821
773508 296261
865171 434348
419955 552726
688691 851734
783141 764782
899459 487754
803738 789159
377761 202269
386604 871450
640859 187920
849903 1889
445877 522529
879657 411142
886974 828570
463609 702705
46700 505951
810626 776123
78954 176687
548779 445196
40304 617057
956002 402956
322891 242647
279244 191920
785213 674499
449323 579658
161442 221259
917631 438048
669123 209967
488698 354106
234967 811646
35109 547865
683647 129567
830762 983220
344406 863018
505989 937574
39531 94214
458244 972884
685171 552195
57623 743257
267009 798833
489753 428887
615814 928324
908052 70344
715486 255431
629591 546920
117060 225650
13946 728805
699661 746821
122871 507054
859231 824274
706139 212185
366501 631648
450706 130495
180252 742098
523144 649116
562304 56090
982189 788813
940324 29468
399281 22567
622031 687710
612124 119887
699485 884422
285285 215222
87987 866559
218135 853838
716507 6128
709603 991783
633742 510201
127098 521601
352595 704211
877026 728698
303658 167934
20961 410593
317587 940373
219721 692917
905445 361293
442035 402182
411180 401070
804890 368009
205660 690478
534742 367328
227685 581023
298556 210106
497197 469050
505329 512184
487486 39946
980276 371723
823784 348710
215533 640721
136995 239851
428071 566224
944932 304624
47479 408321
171527 255346
177436 663238
473297 176226
480484 673107
620083 693541
832926 935275
751311 850152
27689 875782
339059 788023
280683 168685
161112 17250
407520 698237
90069 198551
63303 758644
326797 212742
139755 456943
790367 611381
751073 398392
801699 764344
646497 591296
721231 220250
748748 329946
159422 282071
128011 978348
877560 928707
385354 975698
606821 336851
321903 303811
577133 330918
305124 430266
615503 110812
148013 72821
968959 167334
221409 687054
446748 112289
30890 881751
852968 753141
815612 910058
170278 325315
102482 369955
452290 911647
848580 438976
75362 955301
643174 164215
12052 954005
222311 114535
942095 162529
564392 709389
209214 725895
630810 648033
780251 24434
15128 669863
656966 558899
382305 904151
521809 277663
612368 869797
609544 779842
685094 464810
560521 754988
983447 933665
