903891 566894
405828 404918
126637 601129
439652 543614
262312 932415
780384 833080
400783 843583
752937 349728
197823 55873
551319 352577
198206 184857
356764 619759
169615 54124
683214 812015
26847 104703
448316 939223
353361 54655
479663 839908
935841 862986
631822 76060
132255 74165
245273 592778
848167 842253
669056 86664
458535 289831
664615 843543
287740 857124
349688 463418
209278 370342
934371 136679
199901 366186
883384 113714
468576 779151
895783 115269
554673 66141
248327 870280
508196 196881
682243 565807
927917 462809
665989 715193
997152 566921
579456 381437
246728 194112
317680 504754
590835 618752
120322 880229
157088 166841
225660 524520
511663 114558
497314 263328
646565 405953
999051 597100
959515 422099
101116 972265
884772 53497
790246 609770
309441 297107
731443 703024
176143 793046
35367 543960
928022 416375
749281 494006
998533 113707
524071 202500
287808 810959
695634 993042
747918 576264
774866 639957
13791 921974
905420 587470
61700 121605
190996 477114
789457 844680
855168 331413
938573 120091
78704 246941
323402 731253
437683 650707
349935 66692
227295 926452
264819 62736
576081 732463
686181 209546
9220 947571
289630 298701
880323 552368
625960 344164
464874 585912
249045 943724
635295 114506
378088 547291
69994 392823
423098 61068
697586 898690
886462 748402
615888 673969
968116 967229
956761 387609
968167 533602
332999 466255
819228 684626
350046 377731
764245 979801
897376 328848
84155 166544
346611 241867
219211 542767
305876 804270
279083 351743
436496 110708
9495 325166
185936 876713
226844 516530
50668 607577
670893 159921
15148 76224
959057 378314
849115 412535
847808 260207
361158 733054
48594 174195
669778 117098
930963 31804
279496 406228
786306 817197
944522 464462
263403 589845
272318 909552
509452 214165
197296 9698
226377 795248
972351 751778
717175 36174
223822 438579
846698 889676
924861 190799
590269 785315
581438 776964
636540 760669
560852 705654
293301 681828
24208 879670
455268 577728
69886 589614
619903 972284
861443 574449
446737 906193
470315 705437
140842 209892
300228 255431
243535 974798
172864 483477
654103 200818
588881 689573
401677 152210
684684 33012
164851 38435
705245 86047
697341 594384
270022 987095
585710 105480
108391 34413
145949 530840
876875 561927
198845 742177
373748 780296
479511 385194
953346 982252
994381 535482
848464 373562
312453 31077
535909 857018
739680 382857
566340 391188
169888 677193
350307 258865
600756 598210
58597 84189
387728 771598
272736 644784
424937 863396
534014 964156
531413 74662
513896 494306
566319 976325
16277 393512
766776 214711
53860 543336
217108 542626
263044 670299
699409 208285
684127 213166
745251 658724
796917 492696
55514 788385
869274 770616
590279 435644
191856 366623
557671 920692
984417 525527
254636 71721
539134 401739
474619 536588
60969 826510
481957 753136
434901 638290
867719 858092
597220 64941
175791 742426
105322 841032
259835 40923
199065 399987
495920 43583
498074 424987
191183 417728
700703 77990
879124 297944
296648 318981
235793 974289
730819 960695
325039 190716
268107 616866
427876 136549
925876 57607
748898 446160
737390 759406
681047 903896
508699 526848
483054 265821
814361 173951
654288 974094
716093 374404
721874 166718
133427 278546
308612 277481
74757 31970
39808 574161
910053 217320
227663 735387
53345 234581
454762 692408
128606 267360
776470 217008
674233 361461
498128 522871
80134 86966
