428495 591986 470
707856 4012 509
53880 654386 509
227033 544781 470
141934 24469 354
675892 519220 509
116867 540907 470
829539 954102 525
427207 157397 449
649278 445948 509
996011 413282 525
177974 797449 509
504090 122452 449
898794 822178 525
236968 535805 470
659067 281028 509
674639 851856 525
958114 23852 525
478956 333109 449
148944 888415 525
874597 700604 525
976068 791189 525
644502 376623 509
126838 692 354
258360 200294 443
129175 992460 525
256292 706101 509
7913 192741 383
54738 356728 443
71377 349037 443
318775 342837 384
151752 483047 449
454484 291986 449
404447 701788 509
877808 816590 525
127421 907010 525
320134 136900 443
744528 46502 509
788892 65391 509
630518 766141 504
997887 446785 525
573223 430059 470
765968 76547 509
240521 873920 525
717667 742792 424
128201 571226 470
429652 238181 449
631364 695838 442
970556 514170 525
363209 839184 525
750222 953700 525
360457 459523 449
1681 61551 340
210819 270949 443
244768 82302 443
978019 148639 525
461161 267723 449
690011 297784 509
115983 714575 509
498457 49227 449
74345 317707 443
514394 881591 525
744733 498021 509
182967 233732 443
809196 929337 525
237009 88409 443
586016 22621 470
463911 530617 470
415749 903431 525
319865 637453 509
492350 558038 470
102704 626487 509
546002 101307 470
743315 811707 468
313054 458413 449
171361 768396 509
550947 252648 470
497134 872788 525
674825 505865 509
899960 487110 525
538691 988133 525
452724 533905 470
807644 622924 509
801536 975445 525
649867 665285 442
293397 758005 509
532967 445766 470
336999 745221 509
315415 136130 443
200885 536196 470
567779 55294 470
817901 252279 509
778703 26089 509
578531 196074 470
535842 867622 525
536488 231175 470
602348 884930 525
64283 330052 443
280913 790062 509
18276 483751 449
390585 232820 441
504092 311643 449
872720 216691 525
143361 810086 509
795682 351824 509
263262 754825 509
962819 617596 525
270224 835403 509
966906 413776 525
880760 516929 525
428586 542845 470
480782 299284 449
447361 467881 444
645082 210869 509
948259 979689 458
627081 260910 509
34410 309118 443
226884 409971 443
353645 31620 443
99439 519662 470
965914 499919 525
684495 259091 509
320341 795504 509
638052 132157 509
656740 8366 509
878990 178712 525
789933 956587 525
240402 57461 443
195729 993724 525
643374 993202 525
517139 835951 509
202822 63442 383
167940 933401 525
32090 326857 443
959577 780014 525
496951 538345 470
773368 150867 509
642464 47418 509
772853 4652 509
353986 322865 441
696856 626391 442
230017 188065 386
174064 266489 443
528877 62795 470
636212 856522 525
505846 833471 509
926092 247240 525
466016 100004 449
36306 985123 525
217430 973212 525
869755 559019 525
69643 347049 443
956026 694769 525
642677 783065 504
991208 964182 458
579827 47973 470
991779 339601 525
855889 631121 525
788138 668431 504
571190 364804 470
947122 627686 525
830179 18337 509
287295 537997 470
679119 460902 509
914639 288016 525
355109 354774 304
609554 585893 403
446156 447229 325
774268 974246 525
412689 573034 470
425367 315787 449
216683 954620 525
624199 271332 470
547712 396156 470
760907 614552 509
423563 377958 449
777331 485870 509
834803 156588 509
251049 52766 443
948567 35325 525
39010 927913 525
865429 588672 525
525324 901673 525
936987 798893 525
623042 824959 509
666044 763133 504
926907 770398 525
177554 398513 443
585049 486308 470
166184 691121 509
20864 871269 525
638042 3930 509
475161 667989 509
60722 259897 443
754336 437153 509
774312 759171 468
85863 38303 351
820475 251766 509
162664 896128 525
187896 162901 365
708363 384846 509
112501 254324 443
758107 433260 509
701126 316380 509
819868 818968 300
752254 609438 509
218683 354449 443
725221 753438 424
40132 599655 470
189760 461914 449
524420 331295 470
206372 437899 449
568020 746862 509
330235 942964 525
433785 194269 449
71161 713148 509
326174 989416 525
206870 959704 525
170956 52708 383
462606 25704 449
672023 887047 525
586394 711633 509
993210 418562 525
523975 550813 452
677483 36769 509
190490 267052 443
859542 170577 525
291912 192812 443
518934 272002 470
556592 298307 470
927046 491632 525
638430 699330 442
320382 408452 441
899159 969810 507
203140 229092 386
218658 336162 443
540085 822150 509
888244 306433 525
328852 164311 443
537907 238684 470
717097 801048 468
958665 447947 525
363689 210895 443
291179 845706 525
164189 461706 449
13386 171670 383
677015 467009 509
397943 983591 525
910498 81250 525
674449 525548 509
560477 417488 470
370071 572138 470
976590 306923 525
250714 575119 470
521987 243632 470
336464 669953 509
2409 899479 525
528499 614059 452
500489 83227 449
792475 136844 509
370195 418269 449
13724 22413 279
696194 515946 509
477219 803532 509
855345 910774 476
747856 737869 424
999150 904216 507
246435 271133 407
67562 59240 335
124251 521373 470
945758 591401 525
158634 205811 370
407005 285655 441
46440 11455 324
614729 794522 509
211189 769001 509
822530 303370 509
34433 916539 525
205454 5560 383
972721 478935 525
910246 684536 525
282590 644481 509
167593 899722 525
216188 583673 470
80964 444918 449
849157 335009 525
258203 194788 443
337441 887571 525
487579 397230 449
431132 946183 525
781940 49381 509
416981 431353 418
428273 174978 449
433465 403432 449
86520 728618 509
285575 189594 443
74287 486102 449
372327 7012 443
24393 129283 354
