471881 644855 509
792343 870226 525
134425 452129 449
198861 29988 383
879591 103199 525
737787 307156 509
913725 96007 525
381503 592854 470
841939 97048 525
808706 197131 509
607777 851311 525
535941 464857 470
655553 768429 504
212153 783616 509
916396 382288 525
530739 52822 470
798657 337718 509
881166 544354 525
964985 884859 507
668709 734904 504
592140 749855 509
930644 964916 507
790801 119216 509
185965 291708 443
934342 194004 525
715656 153964 509
551248 489167 470
461460 702982 509
214224 248517 443
881881 534938 525
886517 896857 445
746154 779064 468
280687 1401 443
218005 30363 386
986361 464730 525
189461 83480 383
625147 76219 470
610945 111239 470
721868 192559 509
656551 455165 509
419593 465271 444
904107 910941 476
949301 635223 525
330417 42619 443
54705 330713 443
43578 503273 449
697898 205592 509
142628 847591 525
195238 19414 383
559795 898811 525
316904 530800 470
333968 40961 443
693615 177375 509
625599 661058 509
837696 758216 468
808288 980400 525
458045 387332 449
853220 563205 525
57933 660953 509
574385 722778 509
990118 683467 525
23663 186178 383
415049 452463 418
848892 175058 525
319454 216606 443
342070 890942 525
204299 754431 509
758675 298040 509
225819 567379 470
309087 802896 509
168495 199932 365
63566 810917 509
29591 665665 509
846803 169750 525
209117 435983 449
958380 434780 525
162675 114949 383
704263 166238 509
669246 683545 385
734393 757449 424
504253 122576 449
889420 775021 525
905616 103776 525
18061 790638 509
525999 126703 470
783932 482873 509
974063 820956 525
782499 490269 509
860282 432649 525
311495 356307 441
66758 766844 509
319078 233020 407
569095 337623 470
797920 363711 509
630863 143327 509
497056 58034 449
72873 512396 470
801452 847828 525
513711 317291 470
945121 86459 525
699538 947345 525
530323 203188 470
944023 425440 525
186289 750387 509
623335 505333 470
355688 124158 443
493069 53662 449
985578 42556 525
116829 48172 354
806334 975367 525
741514 557102 509
526306 558097 452
99657 90081 333
879438 710539 525
231810 603912 470
68354 859506 525
136165 716240 509
785947 256514 509
121191 683288 509
581930 612185 434
337415 185604 443
620745 410241 470
672943 476150 509
931360 844702 476
263250 213584 443
89574 140223 354
255038 283631 407
57371 503035 449
983900 18907 525
241309 673375 509
953590 180420 525
897523 669100 525
657316 679169 442
517020 825144 509
396872 180965 443
366164 690818 509
719808 376106 509
393933 473617 449
621317 916979 525
257848 218405 443
478195 122386 449
194276 440013 449
918478 72313 525
370609 290362 441
540767 715059 509
769510 777710 437
935203 475357 525
213992 340733 443
285070 627090 509
343092 881356 525
966695 533438 525
701667 299965 509
111726 970753 525
177510 775158 509
393442 774542 509
565880 761457 509
788177 261076 509
891173 83559 525
439119 668377 509
328412 557237 470
510698 305607 449
388238 859255 525
469835 853207 525
246306 24072 443
662963 776072 504
785202 141020 509
501309 347138 449
889344 217476 525
242236 337446 407
810721 679317 504
273194 493893 449
179083 122227 383
12636 86775 351
552543 35448 470
971553 876206 507
737958 807873 468
339831 956526 525
222203 311212 443
632061 406844 509
910377 80578 525
789789 172876 509
579517 691565 509
985198 990555 396
855593 774721 525
498660 606811 470
984509 596402 525
524265 827819 509
929086 30822 525
557958 197003 470
96865 829315 509
293895 732946 509
365136 795390 509
703694 247301 509
155661 838378 525
489571 850270 525
159868 184002 370
552269 660140 509
221861 469063 449
675432 140160 509
781917 562263 509
908482 399364 525
283939 608272 470
589598 218950 470
100195 920704 525
964617 593326 525
551969 46726 470
936923 820897 525
452039 111324 449
268124 951965 525
820437 626500 504
839182 794161 525
970597 432575 525
275699 196948 443
12375 673099 509
893292 657220 525
262930 772540 509
182444 929917 525
980778 972239 383
348613 805535 509
780507 168870 509
40799 479956 449
123515 260497 443
938320 520134 525
213581 843875 525
205629 975435 525
658291 586775 509
898871 919303 476
752963 481358 509
643264 796631 504
952753 678936 525
869064 151533 525
993381 775685 525
261007 265376 407
862684 100095 525
808079 41202 509
609890 680779 509
419803 882852 525
316693 793122 509
565971 407370 470
648612 78712 509
183874 227328 386
722447 972442 525
322028 980309 525
165538 670017 509
937585 778795 525
306531 881571 525
195852 50927 383
650236 56862 509
171647 187171 365
28916 296967 443
600480 127449 470
487 121491 354
127009 980302 525
189457 985255 525
889511 297539 525
980123 343238 525
735522 344120 509
52109 242604 443
