831232 555638
620355 427000
736835 776656
617595 840738
448438 407203
583345 118799
734291 382627
499619 279604
703263 738474
959634 272592
776504 95947
400483 645259
578927 443194
937028 907390
723910 351842
993157 343775
854592 168047
366871 867504
158199 818021
615248 372694
71366 589432
979108 534120
988694 262007
696302 190994
923180 550370
264696 284716
524303 133984
258668 521410
491434 691068
314351 847002
863668 372905
845656 326802
891125 360378
949483 572503
873033 562152
818803 354140
439400 267884
991347 554551
951615 195195
516224 171661
174624 137485
492662 829009
7196 779539
27915 655023
674228 787635
484831 911600
533222 47181
128994 187870
25520 275443
532273 187873
854710 489173
183330 115796
576843 903285
577368 341204
57167 766173
634362 584397
822017 175870
434922 556597
746786 572758
8931 602548
413968 852923
642992 780959
495948 474767
967412 945585
542382 150672
363143 538906
930392 214195
325794 273568
412161 592815
183481 222565
546990 176970
838295 283019
146495 518493
777937 306830
733570 677107
182511 738071
34014 751587
79224 886234
90646 483555
692214 862205
694998 216526
342183 363489
609130 336367
219862 468097
40372 621757
842472 37792
847101 175597
199538 76460
14329 32345
9020 419128
211502 158201
67147 173901
200493 823094
192162 581799
622640 399076
627015 405669
558183 850698
17182 658119
354560 858183
603407 917267
956203 888967
486392 203965
935557 788011
621255 659089
998089 837888
731923 95288
561831 2458
902364 696451
128495 33838
251380 21259
770743 484456
140400 541610
214557 817186
374259 22134
354947 239063
819604 23678
625696 40297
431886 368218
831389 849532
49987 696671
141564 52381
796346 285677
571860 543635
422217 452613
166002 866025
608151 254610
695005 94830
208802 687879
206136 947035
154345 70461
804008 580309
715356 267453
285100 985629
357535 768752
396000 546792
70171 207954
738979 768880
798329 63885
12183 88661
80459 656944
120526 3624
582604 41060
225484 520339
443294 778277
730872 271458
301721 171057
753455 467414
211169 626276
576766 742517
816317 551422
249018 949522
139194 777220
549109 327306
228622 240160
93482 918599
284882 949897
279429 40601
132226 699516
119129 933472
467350 344704
696720 872266
770663 572322
664179 55862
831947 488905
342687 978502
593251 940647
799843 919171
201498 314141
908882 265592
184477 956524
476268 502300
462610 102307
726759 685251
211901 98488
945260 650881
695347 913008
315389 631039
7222 213482
239289 223419
642172 198395
593659 571092
314671 784581
357517 972447
183 309674
571950 928270
290997 508608
38959 442837
597992 674932
382606 81720
446923 878507
171162 540942
215275 130344
898358 194192
470274 301682
41653 297582
124994 868241
112835 620267
67429 610108
107343 82775
831887 304461
198041 293190
145356 634942
398991 154110
645720 210515
513080 72575
805560 831386
886479 827410
532399 290155
332185 929476
818212 715995
418618 75599
950622 88785
415638 62229
852328 29044
479073 173422
402029 164008
474707 101668
332277 72353
73455 600669
494977 663155
551202 37890
476880 27543
575227 135573
526325 363247
678221 392011
680785 807116
118724 700490
912523 470902
979437 607386
561229 995031
656749 74775
535641 22984
271119 501206
821066 427958
816077 506153
671846 394258
163611 728597
396845 3191
681265 560618
312293 894456
692271 857891
697344 931549
513294 362232
321840 716794
371062 151157
771199 770106
147042 681601
162947 883886
220318 144501
859579 788049
617657 225471
172841 623937
789968 802130
327877 417730
489293 650369
938029 144837
55401 226686
768088 156562
320456 687505
298100 839857
935518 504718
442283 813198
165011 773887
452371 852478
846622 249549
575590 852793
297438 47653
161519 514922
370455 311001
925413 950152
114848 329189
638130 949609
527254 915395
36951 513592
408003 910306
687406 324589
469648 110388
405049 14227
362464 21965
237168 691803
674701 890487
963144 735123
211511 102167
197116 803524
