255078 873191 525
517426 776738 509
858014 747400 525
191204 753174 509
287754 23261 443
129227 573123 470
927728 393853 525
619334 527293 452
374083 359080 410
229670 910314 525
957256 301659 525
457399 339112 449
393358 439014 449
75344 703769 509
297305 52650 443
940809 218188 525
706220 389621 509
786869 290157 509
688147 607173 509
895721 224915 525
377599 791241 509
464745 854866 525
62880 776289 509
977490 112682 525
942688 945505 383
936904 696984 525
718786 390518 509
944371 193761 525
151378 1735 375
402446 85883 443
345835 613301 470
392940 877214 525
378097 989725 525
514676 928247 525
186742 14574 383
528524 545106 408
881431 68336 525
914272 531708 525
836145 292908 509
291111 952530 525
545600 9127 470
313878 432420 449
508852 637836 509
609285 878182 525
958670 291927 525
682118 923351 525
319987 949280 525
339052 184667 443
956480 933189 507
959703 217783 525
970370 596569 525
280387 573090 470
503711 744352 509
343213 85406 443
369986 412759 449
917208 589267 525
72600 886825 525
796981 96706 509
490047 170736 449
352166 839333 525
704094 727119 504
451263 140377 449
3251 542104 470
277988 639894 509
724113 983865 525
944418 621443 525
567010 408071 470
662769 839241 525
978454 282758 525
837369 875776 525
4756 827903 509
278860 660074 509
910739 845250 476
174157 833350 509
712782 165174 509
660105 49766 509
372169 662447 509
597132 608578 403
196843 635558 509
538593 352944 470
443065 255829 449
269464 388119 441
366519 562942 470
608815 485571 470
194222 444680 449
11615 568303 470
16281 568937 470
312448 487871 449
861207 31287 525
183280 719676 509
533906 96904 470
244522 490596 449
621856 871281 525
24420 740356 509
18680 196739 383
813830 532341 509
464870 77678 449
810399 451172 509
401224 187806 443
645188 396430 509
309430 227271 443
391318 180232 443
105959 580290 470
3973 613648 470
955765 871355 507
912418 73742 525
342038 326312 366
245293 746705 509
550603 319682 470
862885 457736 525
968579 836587 525
719352 736907 424
840756 673884 525
661165 565440 509
670203 377363 509
269818 107002 443
407095 768210 509
109017 235427 443
369945 117077 443
812688 910672 525
961286 874663 507
418177 410095 387
968306 655161 525
670616 266845 509
66345 863810 525
710864 600082 509
771247 735504 468
539775 881436 525
152152 355389 443
920849 144576 525
965294 613362 525
335802 61837 443
267185 791192 509
115730 495099 449
403354 754164 509
421832 136411 449
78673 879452 525
683354 294088 509
422481 470726 444
622851 621556 372
29437 274182 443
901692 159989 525
359619 729072 509
702613 770635 504
935795 634205 525
837834 213496 525
827993 985405 525
379116 993756 525
745996 631465 504
539946 940117 525
374416 680993 509
698942 215482 509
134519 926584 525
180326 927457 525
310804 700405 509
177776 758561 509
511078 144225 449
19818 728820 509
451560 844604 525
816930 619973 509
133117 872313 525
569377 24589 470
214188 260021 443
182803 572749 470
67077 969901 525
796290 182953 509
391676 255523 441
879678 756501 525
858481 583028 525
39738 243020 443
297287 554595 470
736080 574294 509
163125 558825 470
128870 363366 443
360255 73914 443
671854 277171 509
417463 404676 449
547022 186839 470
711431 84290 509
680610 206960 509
3891 751229 509
427095 599832 470
152146 775331 509
907972 410880 525
559655 701137 509
936789 551554 525
80950 248035 443
426635 609366 470
235369 508027 449
56700 616906 470
203728 823859 509
834870 733345 468
583208 771129 509
36493 122662 354
305671 295966 371
811149 831084 450
112317 109056 323
275288 527211 470
543963 985521 525
61514 794510 509
993769 272845 525
361286 546443 470
100507 531297 470
474688 639328 509
368772 787736 509
904025 5487 525
826580 323731 509
535594 187586 470
400591 189463 443
361230 502046 449
140956 439390 449
316961 850660 525
477957 101516 449
285304 93862 443
938408 610365 525
722583 213081 509
984972 191604 525
242389 167975 443
255148 426931 449
528178 794495 509
841729 484450 525
49680 106338 354
563135 95823 470
65299 527413 470
590789 585142 359
392895 455000 449
334466 132041 443
429896 21186 449
225712 252665 443
829502 218661 509
777845 532843 509
