142868 286050 443
173302 914590 525
52659 601068 470
969884 520124 525
142897 875971 525
691884 957047 525
172070 155639 383
663350 614351 509
916292 602403 525
455447 486653 444
526526 111883 470
222153 650532 509
581899 801270 509
227128 876706 525
13473 554553 470
789572 101995 509
697883 922889 525
36228 520883 470
398287 852374 525
966713 19255 525
82843 384726 443
169074 11642 383
853650 269473 525
589353 436401 470
739203 918934 525
771644 399860 509
649526 256377 509
18620 583653 470
85148 605917 470
373883 528444 470
795639 615006 509
766374 683735 504
244345 661923 509
262210 234920 368
177163 364300 443
529435 636191 509
454827 871910 525
64742 902668 525
339386 339168 260
910226 664561 525
708628 762271 424
209090 683530 509
223213 723490 509
797141 123772 509
769702 300403 509
342131 127029 443
780884 115703 509
569495 809389 509
141552 408522 443
423363 775459 509
811286 458913 509
724486 499407 509
34235 562268 470
635170 224678 509
528802 764496 509
321450 854654 525
447365 404508 449
541666 906054 525
136044 140306 344
12101 980049 525
301192 432746 449
695019 995840 525
797201 183739 509
613928 823182 509
265013 388749 441
271481 99530 443
292300 711981 509
37315 302919 443
950973 51569 525
222750 941387 525
196181 361667 443
944121 380051 525
723106 145932 509
115158 539982 470
130077 169269 383
751701 90834 509
540405 697353 509
276336 571347 470
714581 509941 509
146702 507167 449
999233 585983 525
887622 472165 525
773683 887349 525
712241 583501 509
429639 739681 509
405315 337396 441
623207 598037 447
283413 642874 509
303023 678375 509
721132 805227 468
338117 978106 525
222720 337182 443
633742 787480 504
38902 200571 383
834695 291924 509
859636 586934 525
612605 31296 470
129814 985613 525
202428 921528 525
858906 143981 525
554405 165960 470
531440 612712 452
348841 156990 443
736345 942522 525
543897 52616 470
601133 292296 470
149252 389296 443
684044 880643 525
958048 43993 525
813182 506614 509
100004 342024 443
45403 976672 525
262916 863777 525
135038 198255 383
736314 919354 525
890101 482101 525
69384 871124 525
490010 42489 449
856704 567526 525
251727 540422 470
22359 162156 383
693067 984925 525
394160 328725 441
650315 359696 509
34267 989541 525
487463 959794 525
855163 373716 525
345376 175736 443
928874 625605 525
256539 274188 407
289186 790337 509
720442 325080 509
83508 887779 525
580986 115430 470
310990 714191 509
137750 230745 443
597456 387821 470
435456 673703 509
792225 857336 525
45884 666791 509
965111 544412 525
60859 678358 509
908268 301096 525
335737 34995 443
592691 535834 452
910496 526491 525
835347 491969 509
147517 403468 443
779007 896740 525
131039 310708 443
6785 843667 525
360323 474325 449
698291 650264 442
570196 862465 525
16949 264407 443
246572 540534 470
565300 11380 470
237530 746767 509
800393 629777 504
333294 157404 443
607854 739333 509
680832 884801 525
8735 858671 525
775656 234045 509
864429 168823 525
725780 361444 509
8701 264407 443
886864 300695 525
104599 392728 443
294065 362637 441
979398 849224 507
918710 747888 525
283595 666247 509
326712 64020 443
740080 606769 509
135408 962154 525
255332 497185 449
268622 648267 509
122614 404453 443
641212 93308 509
261309 44154 443
993465 26936 525
25967 796342 509
689109 347388 509
973670 456514 525
205865 916439 525
339285 84985 443
946005 910416 507
637748 244624 509
799902 223038 509
65906 992732 525
926836 898536 476
425249 299315 449
463822 810769 509
188791 239487 443
682515 234126 509
143590 674917 509
578603 80770 470
746883 406463 509
103735 299870 443
533961 279005 470
646926 630010 416
887213 611221 525
746882 499237 509
65051 408838 443
957103 264927 525
552353 441420 470
54393 616005 470
757445 140768 509
171567 202979 365
466191 745393 509
197312 251603 443
456184 279758 449
883736 216210 525
694128 665397 442
173651 730339 509
528037 504546 470
343542 958890 525
219920 63750 386
315020 580716 470
