703423 226591
673207 345716
543399 946771
60055 900156
843192 363315
20672 807230
884003 237622
89672 598701
586484 545039
850346 584900
314468 658246
829629 636917
290241 911486
55481 422661
485415 636293
524497 950119
199892 891193
130114 685528
627239 830152
708544 697451
392374 63992
285063 343154
78768 658357
701813 27297
896459 93749
193619 536370
514264 234113
60450 703099
105798 513524
926312 852891
602257 392112
904154 268049
386065 992436
878030 801644
501728 377398
873789 273525
917140 43803
819649 166665
260927 527409
184979 903950
944118 8140
998115 679933
923931 225962
570317 469181
837162 881196
967185 352969
142002 445791
320296 701247
40686 921670
122548 969474
834291 764162
801525 615047
567829 750063
5628 818801
456009 887034
97158 874768
235949 339575
462676 928521
443061 464461
164939 434145
171292 224039
76923 319330
156482 447693
524720 143834
256426 585878
117477 932034
937015 262793
234216 685435
405601 11416
496071 297813
38346 352052
80887 195070
983648 376169
100230 752332
592972 501295
646090 613308
383763 514550
822165 789517
617113 166369
769841 680838
914708 224072
83274 381559
306988 354468
139067 856314
464447 617594
175679 480331
574496 212538
99729 517664
274595 72592
664031 877225
638523 530098
189416 487715
332 797562
394217 692551
327324 351636
285904 819046
432395 605167
853426 682792
265876 207377
41964 467037
882270 815828
522224 830079
546860 427182
627599 911201
945576 354994
803197 214206
955415 497582
964242 786550
517027 501379
77246 288620
892126 303822
25819 278355
4706 319971
118944 50767
279011 988499
801263 500010
71237 861393
618675 208641
713946 641695
900113 946394
808841 543553
940104 984672
602458 326927
462504 281499
427268 781684
585157 750222
130842 268215
936768 21885
718751 78508
607628 124664
61288 504007
289513 656467
602937 512329
540700 758949
788519 577203
961246 585613
675014 485740
925024 714343
535219 773872
463352 939463
110744 646926
200078 200867
290227 270182
45066 877318
857210 660601
192254 375210
110438 980232
699618 395535
741934 946493
566534 38986
38196 390060
584894 273748
303476 431163
476753 338310
567553 376081
651702 228651
657021 779848
367466 68689
733442 184240
28284 102943
820696 616566
77486 247830
541704 364825
559292 786747
449887 397712
698739 81799
563840 21249
535756 909284
345483 180810
365352 148715
180429 167008
113215 543239
7629 537693
481892 238257
626533 7575
326274 803752
320478 211988
731090 292574
521041 813287
986560 126783
679158 71735
271813 309245
946566 456804
155637 812299
856314 341399
610523 497353
9339 709600
730206 993402
621111 531094
177567 302444
833995 880894
486085 46995
667002 724271
475354 559886
141967 783968
816493 904962
608750 842590
708064 685950
503912 789798
667719 59379
267464 922401
238932 491697
850883 876661
746613 818996
819536 649482
396905 424007
452883 636087
680863 741953
409706 975284
420383 418026
304527 285459
607873 291445
293966 817089
118608 210588
891157 829947
451004 988971
170089 277546
672753 618708
847857 369319
140409 778019
235611 49940
887405 8922
227668 933679
541403 677834
311926 284100
493622 578771
978492 318149
214906 281947
748203 928129
90999 928293
91636 265166
443332 758362
331876 531984
656675 265222
