439413 164737
846441 660551
385239 425389
244985 17510
31990 49101
833657 495441
846984 115370
315598 332677
418985 19150
911703 712604
839305 427568
74612 347069
864918 505668
798514 868650
386780 795390
729188 510197
333337 770310
584930 887738
306406 573448
548874 436100
940874 16492
908864 939294
462768 879444
913677 860336
264747 613978
904901 41682
89084 688289
912633 901213
104704 899089
629482 209660
515984 353275
787422 336248
272467 506047
659449 474614
265319 211293
855613 983797
882548 937031
715256 733880
315826 643517
970661 126327
166585 905980
365419 974780
851176 373888
569219 954857
839747 58061
93037 108905
751796 966353
541248 829746
820970 543424
917464 467644
179033 734563
24392 693881
333585 951696
628614 747227
132185 637248
187581 388863
220173 971334
540416 145615
986458 766162
662034 635053
136768 841621
650778 587159
800682 827158
769792 968025
926212 198306
940019 833578
341164 363905
784453 452534
423332 994862
516579 65121
46087 78815
834691 146422
748029 269504
772204 855367
667494 377668
996942 606403
618194 774171
755778 939205
730620 735774
582487 112214
294906 200645
287537 468238
240020 355760
83952 658207
784776 774482
669828 113630
241368 818914
514760 891938
83877 827332
33784 843662
474993 618336
170964 150364
405533 583032
384691 171236
705473 849400
192266 723809
464631 845419
734505 172206
145318 942100
648160 668706
132884 532483
486559 351617
689629 248222
80223 627662
384647 803685
259879 22638
463318 542415
223897 55353
282869 20978
165264 260655
453117 547442
508263 505451
512974 601159
775979 368578
950477 618041
955177 828217
838739 788470
194555 178541
370445 753962
282212 147137
477293 904017
209500 698787
813775 916217
37212 752387
497363 141609
782921 303680
458950 584986
609909 582005
486470 874084
225107 571148
47063 864770
670747 258857
56620 871489
217868 519496
337028 479439
586897 736285
696984 329143
531903 818193
508502 535971
395591 599731
702705 539578
106514 410870
937284 115209
645505 946846
353141 104664
534201 598807
350237 675187
250517 612003
479680 274456
728722 883597
104948 801480
429510 264557
910263 643982
491576 88196
138229 669962
773570 573092
335084 666049
214953 350493
691895 386537
468492 789518
441221 563238
889761 896022
800037 142486
42751 968353
497364 596459
959409 468961
749382 808273
726354 457415
966800 973994
209396 984724
434342 36915
198721 133840
252080 562797
96597 592620
647647 831217
229999 63028
684011 765488
987525 347664
315953 350303
41050 73046
617026 232233
363633 193870
576490 991348
341525 413764
335222 433935
178783 376477
222867 761273
304394 36862
257366 30874
479900 419191
567794 658638
808797 612623
799533 360698
323190 98791
183915 612310
211045 534378
473937 45504
697988 25730
684407 415782
611389 651273
327734 276015
456874 833186
789870 206647
226366 78233
422333 732386
691978 266644
881439 5318
400930 475592
76621 502079
735374 600202
157236 982385
921813 321928
627909 160070
315763 380755
184040 384238
415996 964750
951672 915280
893572 594096
582189 467394
171614 25893
71338 607890
44538 926451
643580 983227
718309 858036
34512 980358
769744 897541
659331 956909
900105 781965
318121 554569
542011 467438
82990 425853
212868 485322
330736 312938
862938 101619
1418 611600
628851 285074
639022 289362
383943 984871
967557 390413
894040 979438
266379 397309
752138 254870
297954 102443
140539 608919
946412 271591
666729 517038
60033 390595
