726008 49445 509
161475 27237 383
605748 181250 470
538778 208854 470
96333 523127 470
436018 752659 509
627540 732489 504
827150 368279 509
424550 605872 470
370968 295660 441
433279 61737 449
935148 746447 525
182874 735598 509
593144 868409 525
873388 17605 525
511010 771667 509
936813 820375 525
116612 571573 470
945861 568417 525
989652 757044 525
574918 524817 452
672635 84687 509
498100 506327 426
518132 18587 470
41654 268975 443
768936 116075 509
150427 783354 509
566005 742667 509
502490 399483 449
21386 657402 509
969387 778327 525
282311 981527 525
533210 32762 470
452818 14998 449
66485 923822 525
552481 7349 470
616185 557154 447
700986 656162 442
412942 339257 449
290319 351025 441
562147 669238 509
158064 937556 525
69064 685379 509
638902 854023 525
271977 560120 470
252122 370671 441
967646 74059 525
761294 8159 509
226986 260752 443
38353 824738 509
451941 730140 509
714214 322910 509
571878 301042 470
276180 135385 443
757987 823091 468
83392 215385 383
954252 161177 525
232611 828992 509
106882 120790 349
37369 23020 324
539154 622250 452
161511 263771 443
151845 605306 470
366878 942067 525
805683 948580 525
262111 690614 509
552966 434176 470
530510 911383 525
826490 170573 509
571899 118752 470
750563 63208 509
826292 677074 504
385241 708831 509
679459 100691 509
407991 788388 509
961462 842246 507
862711 205626 525
256388 189558 443
356970 646761 509
973077 383313 525
879633 401965 525
744631 581047 509
602679 272342 470
906328 638894 525
121580 99818 354
99111 368690 443
881147 260194 525
984033 173810 525
346188 278553 441
253914 310724 407
720895 960896 525
542782 644839 509
21017 262152 443
28410 373538 443
568506 477897 470
901015 450963 525
407341 371571 436
698504 855175 525
588373 358553 470
584933 37036 470
531520 526093 408
647049 61809 509
319541 285452 389
176643 937462 525
346737 694899 509
54201 976244 525
756597 912343 525
321411 858729 525
142157 914796 525
372605 192137 443
231577 296842 407
287631 224698 443
933510 75050 525
493835 144725 449
123109 941576 525
555370 644045 509
998397 780106 525
963421 481068 525
971957 45061 525
935104 416933 525
915698 214532 525
151873 207121 383
25603 736516 509
507160 975009 525
875670 299652 525
969340 134251 525
836245 438183 509
110732 529378 470
357618 649666 509
409169 332901 441
233850 160909 443
963706 274502 525
408026 184507 443
206134 864298 525
839590 822798 525
206334 658738 509
954302 909341 507
620969 479330 470
853366 101291 525
205437 761616 509
667197 178286 509
205514 601695 470
789245 782165 406
540874 273134 470
344048 590958 470
417829 33884 449
278523 368232 441
79072 516125 470
752778 495913 509
272513 962056 525
102045 952238 525
158834 462626 449
823126 850511 525
193965 801705 509
17747 368533 443
241644 831041 509
362364 812434 509
180875 72711 383
829205 86974 509
943393 702667 525
838436 838254 251
588489 899678 525
923540 181174 525
2406 452742 449
676910 103435 509
324421 972760 525
47509 56971 340
614253 854769 525
555440 676898 509
302068 775209 509
271358 816171 509
677203 644999 442
792213 312359 509
968754 271358 525
536179 513375 439
690567 394872 509
586388 642222 509
949734 387538 525
613736 97147 470
742508 854814 525
598083 313381 470
99391 567207 470
971549 779703 525
612221 960528 525
577200 465102 470
961139 762245 525
201341 446121 449
992884 923057 507
560433 125788 470
227433 636778 509
981116 357362 525
631127 315713 509
547726 763146 509
132021 144693 375
165641 260339 443
33874 802224 509
963675 461296 525
224241 150372 386
221980 440131 449
686708 957411 525
982156 635482 525
724202 576396 509
969147 535713 525
179924 18564 383
583756 856808 525
684275 895387 525
286682 797544 509
27824 293458 443
259110 864640 525
83435 730015 509
167599 299289 443
828028 811214 450
114275 565650 470
425437 558134 470
869748 107377 525
734188 103440 509
698761 213981 509
110564 661207 509
308184 554983 470
831781 581108 509
5786 414053 449
877441 451196 525
830327 233701 509
471024 194135 449
939525 89675 525
240949 922948 525
147747 542951 470
294395 347993 441
752623 766693 424
49904 968836 525
86536 820405 509
327585 89760 443
989353 638235 525
674181 183716 509
228503 291210 443
536242 157123 470
530505 219488 470
230421 457307 449
400761 11825 443
52954 482190 449
875893 512840 525
945225 491604 525
624656 335199 470
457435 501621 444
736775 483544 509
682115 552598 509
815515 512216 509
290491 842316 525
